{
	"PersoATrouver1":1,
	"images":"personnages\/",
	"ligne":5,
	"valeursPossible":[
		[
			"animal",
			"humain"
		],
		[
			"chauve",
			"marrons",
			"roux",
			"blond",
			"noirs",
			"gris"
		],
		[
			"bleus",
			"rouges",
			"noirs",
			"verts",
			"marrons",
			"bleus"
		],
		[
			false,
			true
		],
		[
			"masculin",
			"feminin"
		]
	],
	"Niveau":1,
	"attribut":[
		"genre",
		"cheveux",
		"yeux",
		"accessoires",
		"sexe"
	],
	"save":false,
	"Page":3,
	"PersoATrouver":0,
	"colonne":3,
	"possibilites":[
		{
			"accessoires":false,
			"dessinAnime":"Bob l'Eponge",
			"fichier":"Bob-leponge.png",
			"cheveux":"chauve",
			"yeux":"bleus",
			"genre":"animal",
			"fichierBarre":"Bob-leponge-barre.png",
			"sexe":"masculin",
			"prenom":"Bob",
			"EstCocher":false
		},
		{
			"accessoires":false,
			"dessinAnime":"Bob l'Eponge",
			"fichier":"Carlo.png",
			"cheveux":"chauve",
			"yeux":"rouges",
			"genre":"animal",
			"fichierBarre":"Carlo-barre.png",
			"sexe":"masculin",
			"prenom":"Carlo",
			"EstCocher":false
		},
		{
			"accessoires":false,
			"dessinAnime":"Bob l'Eponge",
			"fichier":"Patrick.png",
			"cheveux":"chauve",
			"yeux":"noirs",
			"genre":"animal",
			"fichierBarre":"Patrick-barre.png",
			"sexe":"masculin",
			"prenom":"Patrik",
			"EstCocher":false
		},
		{
			"accessoires":false,
			"dessinAnime":"Bob l'Eponge",
			"fichier":"Mr Crable.png",
			"cheveux":"chauve",
			"yeux":"noirs",
			"genre":"animal",
			"fichierBarre":"Mr Crable-barre.png",
			"sexe":"masculin",
			"prenom":"M.Crable",
			"EstCocher":false
		},
		{
			"accessoires":false,
			"dessinAnime":"Jimmy Neutron",
			"fichier":"Jimmy.png",
			"cheveux":"marrons",
			"yeux":"bleus",
			"genre":"humain",
			"fichierBarre":"Jimmy-barre.png",
			"sexe":"masculin",
			"prenom":"Jimmy",
			"EstCocher":true
		},
		{
			"accessoires":true,
			"dessinAnime":"Jimmy Neutron",
			"fichier":"Carl.png",
			"cheveux":"roux",
			"yeux":"noirs",
			"genre":"humain",
			"fichierBarre":"Carl-barre.png",
			"sexe":"masculin",
			"prenom":"Carl",
			"EstCocher":false
		},
		{
			"accessoires":false,
			"dessinAnime":"Jimmy Neutron",
			"fichier":"Cindy.png",
			"cheveux":"blond",
			"yeux":"verts",
			"genre":"humain",
			"fichierBarre":"Cindy-barre.png",
			"sexe":"feminin",
			"prenom":"Cindy",
			"EstCocher":false
		},
		{
			"accessoires":false,
			"dessinAnime":"Jimmy Neutron",
			"fichier":"Sheen.png",
			"cheveux":"noirs",
			"yeux":"marrons",
			"genre":"humain",
			"fichierBarre":"Sheen-barre.png",
			"sexe":"masculin",
			"prenom":"Sheen",
			"EstCocher":true
		},
		{
			"accessoires":false,
			"dessinAnime":"Mickey Mouse",
			"fichier":"mickey.png",
			"cheveux":"noirs",
			"yeux":"noirs",
			"genre":"animal",
			"fichierBarre":"mickey-barre.png",
			"sexe":"masculin",
			"prenom":"Mickey",
			"EstCocher":false
		},
		{
			"accessoires":true,
			"dessinAnime":"Mickey Mouse",
			"fichier":"Dingo.png",
			"cheveux":"chauve",
			"yeux":"noirs",
			"genre":"animal",
			"fichierBarre":"Dingo-barre.png",
			"sexe":"masculin",
			"prenom":"Dingo",
			"EstCocher":false
		},
		{
			"accessoires":true,
			"dessinAnime":"Mickey Mouse",
			"fichier":"minny.png",
			"cheveux":"noirs",
			"yeux":"noirs",
			"genre":"animal",
			"fichierBarre":"minny-barre.png",
			"sexe":"feminin",
			"prenom":"Minnie",
			"EstCocher":true
		},
		{
			"accessoires":true,
			"dessinAnime":"Mickey Mouse",
			"fichier":"Donald.png",
			"cheveux":"noirs",
			"yeux":"noirs",
			"genre":"animal",
			"fichierBarre":"Donald-barre.png",
			"sexe":"masculin",
			"prenom":"Donald",
			"EstCocher":false
		},
		{
			"accessoires":false,
			"dessinAnime":"Totally spies",
			"fichier":"Sam.png",
			"cheveux":"roux",
			"yeux":"verts",
			"genre":"humain",
			"fichierBarre":"Sam-barre.png",
			"sexe":"feminin",
			"prenom":"Sam",
			"EstCocher":false
		},
		{
			"accessoires":false,
			"dessinAnime":"Totally spies",
			"fichier":"Clover.png",
			"cheveux":"blond",
			"yeux":"bleus",
			"genre":"humain",
			"fichierBarre":"Clover-barre.png",
			"sexe":"feminin",
			"prenom":"Clover",
			"EstCocher":false
		},
		{
			"accessoires":false,
			"dessinAnime":"Totally spies",
			"fichier":"Alex.png",
			"cheveux":"noirs",
			"yeux":"marron",
			"genre":"humain",
			"fichierBarre":"Alex-barre.png",
			"sexe":"feminin",
			"prenom":"Alex",
			"EstCocher":false
		},
		{
			"accessoires":false,
			"dessinAnime":"Totally spies",
			"fichier":"Jerry_remastered.png",
			"cheveux":"gris",
			"yeux":"noirs",
			"genre":"humain",
			"fichierBarre":"Jerry_remastered-barre.png",
			"sexe":"masculin",
			"prenom":"R.Jerry",
			"EstCocher":false
		},
		{
			"accessoires":false,
			"dessinAnime":"Tom et Jerry",
			"fichier":"jerry.png",
			"cheveux":"roux",
			"yeux":"noirs",
			"genre":"animal",
			"fichierBarre":"jerry-barre.png",
			"sexe":"masculin",
			"prenom":"Jerry",
			"EstCocher":false
		},
		{
			"accessoires":true,
			"dessinAnime":"Tom et Jerry",
			"fichier":"Spike1.png",
			"cheveux":"chauve",
			"yeux":"noirs",
			"genre":"animal",
			"fichierBarre":"Spike1-barre.png",
			"sexe":"masculin",
			"prenom":"Spike",
			"EstCocher":false
		},
		{
			"accessoires":false,
			"dessinAnime":"Tom et Jerry",
			"fichier":"tom.png",
			"cheveux":"gris",
			"yeux":"verts",
			"genre":"animal",
			"fichierBarre":"tom-barre.png",
			"sexe":"masculin",
			"prenom":"Tom",
			"EstCocher":false
		},
		{
			"accessoires":true,
			"dessinAnime":"Tom et Jerry",
			"fichier":"Galore.png",
			"cheveux":"chauve",
			"yeux":"verts",
			"genre":"animal",
			"fichierBarre":"Galore-barre.png",
			"sexe":"feminin",
			"prenom":"Galore",
			"EstCocher":false
		}
	]
}